%YAML 1.1
%TAG !u! tag:unity3d.com,2011:
--- !u!74 &7400000
AnimationClip:
  m_ObjectHideFlags: 0
  m_PrefabParentObject: {fileID: 0}
  m_PrefabInternal: {fileID: 0}
  m_Name: Estrella4
  serializedVersion: 6
  m_Legacy: 0
  m_Compressed: 0
  m_UseHighQualityCurve: 1
  m_RotationCurves: []
  m_CompressedRotationCurves: []
  m_EulerCurves: []
  m_PositionCurves:
  - curve:
      serializedVersion: 2
      m_Curve:
      - serializedVersion: 2
        time: 0
        value: {x: 0, y: 0, z: 0}
        inSlope: {x: 56.57143, y: 114.85715, z: 0}
        outSlope: {x: 56.57143, y: 114.85715, z: 0}
        tangentMode: 0
      - serializedVersion: 2
        time: 0.5833333
        value: {x: 33, y: 67, z: 0}
        inSlope: {x: 2.9011002, y: 104.73627, z: 0}
        outSlope: {x: 2.9011002, y: 104.73627, z: 0}
        tangentMode: 0
      - serializedVersion: 2
        time: 1.0166667
        value: {x: 11, y: 108, z: 0}
        inSlope: {x: 11.758238, y: 120.16483, z: 0}
        outSlope: {x: 11.758238, y: 120.16483, z: 0}
        tangentMode: 0
      - serializedVersion: 2
        time: 1.3666667
        value: {x: 37, y: 159, z: 0}
        inSlope: {x: 20.563906, y: 106.804504, z: 0}
        outSlope: {x: 20.563906, y: 106.804504, z: 0}
        tangentMode: 0
      - serializedVersion: 2
        time: 2
        value: {x: 16, y: 202, z: 0}
        inSlope: {x: -3.578947, y: 61.94737, z: 0}
        outSlope: {x: -3.578947, y: 61.94737, z: 0}
        tangentMode: 0
      - serializedVersion: 2
        time: 3
        value: {x: 42, y: 258, z: 0}
        inSlope: {x: -2, y: 54, z: 0}
        outSlope: {x: -2, y: 54, z: 0}
        tangentMode: 0
      - serializedVersion: 2
        time: 4
        value: {x: 12, y: 310, z: 0}
        inSlope: {x: -27, y: -284, z: 0}
        outSlope: {x: -27, y: -284, z: 0}
        tangentMode: 0
      - serializedVersion: 2
        time: 4.5
        value: {x: 0, y: 0, z: 0}
        inSlope: {x: -24, y: -620, z: 0}
        outSlope: {x: -24, y: -620, z: 0}
        tangentMode: 0
      m_PreInfinity: 2
      m_PostInfinity: 2
      m_RotationOrder: 4
    path: 
  m_ScaleCurves: []
  m_FloatCurves:
  - curve:
      serializedVersion: 2
      m_Curve:
      - serializedVersion: 2
        time: 0
        value: 1
        inSlope: Infinity
        outSlope: Infinity
        tangentMode: 103
      - serializedVersion: 2
        time: 3.5
        value: 0
        inSlope: Infinity
        outSlope: Infinity
        tangentMode: 103
      - serializedVersion: 2
        time: 4
        value: 0
        inSlope: Infinity
        outSlope: Infinity
        tangentMode: 103
      - serializedVersion: 2
        time: 4.05
        value: 0
        inSlope: Infinity
        outSlope: Infinity
        tangentMode: 103
      - serializedVersion: 2
        time: 4.233333
        value: 0
        inSlope: Infinity
        outSlope: Infinity
        tangentMode: 103
      - serializedVersion: 2
        time: 4.383333
        value: 0
        inSlope: Infinity
        outSlope: Infinity
        tangentMode: 103
      - serializedVersion: 2
        time: 4.5
        value: 1
        inSlope: Infinity
        outSlope: Infinity
        tangentMode: 103
      - serializedVersion: 2
        time: 4.55
        value: 0
        inSlope: Infinity
        outSlope: Infinity
        tangentMode: 103
      m_PreInfinity: 2
      m_PostInfinity: 2
      m_RotationOrder: 4
    attribute: m_Enabled
    path: Image
    classID: 114
    script: {fileID: -765806418, guid: f5f67c52d1564df4a8936ccd202a3bd8, type: 3}
  m_PPtrCurves: []
  m_SampleRate: 60
  m_WrapMode: 0
  m_Bounds:
    m_Center: {x: 0, y: 0, z: 0}
    m_Extent: {x: 0, y: 0, z: 0}
  m_ClipBindingConstant:
    genericBindings:
    - serializedVersion: 2
      path: 0
      attribute: 1
      script: {fileID: 0}
      typeID: 4
      customType: 0
      isPPtrCurve: 0
    - serializedVersion: 2
      path: 0
      attribute: 0
      script: {fileID: 0}
      typeID: 95
      customType: 8
      isPPtrCurve: 0
    - serializedVersion: 2
      path: 0
      attribute: 1
      script: {fileID: 0}
      typeID: 95
      customType: 8
      isPPtrCurve: 0
    - serializedVersion: 2
      path: 83635035
      attribute: 3305885265
      script: {fileID: -765806418, guid: f5f67c52d1564df4a8936ccd202a3bd8, type: 3}
      typeID: 114
      customType: 24
      isPPtrCurve: 0
    - serializedVersion: 2
      path: 0
      attribute: 2
      script: {fileID: 0}
      typeID: 95
      customType: 8
      isPPtrCurve: 0
    pptrCurveMapping: []
  m_AnimationClipSettings:
    serializedVersion: 2
    m_AdditiveReferencePoseClip: {fileID: 0}
    m_AdditiveReferencePoseTime: 0
    m_StartTime: 0
    m_StopTime: 4.55
    m_OrientationOffsetY: 0
    m_Level: 0
    m_CycleOffset: 0
    m_HasAdditiveReferencePose: 0
    m_LoopTime: 1
    m_LoopBlend: 0
    m_LoopBlendOrientation: 0
    m_LoopBlendPositionY: 0
    m_LoopBlendPositionXZ: 0
    m_KeepOriginalOrientation: 0
    m_KeepOriginalPositionY: 1
    m_KeepOriginalPositionXZ: 0
    m_HeightFromFeet: 0
    m_Mirror: 0
  m_EditorCurves:
  - curve:
      serializedVersion: 2
      m_Curve:
      - serializedVersion: 2
        time: 0
        value: 0
        inSlope: 56.57143
        outSlope: 56.57143
        tangentMode: 34
      - serializedVersion: 2
        time: 0.5833333
        value: 33
        inSlope: 2.9011002
        outSlope: 2.9011002
        tangentMode: 34
      - serializedVersion: 2
        time: 1.0166667
        value: 11
        inSlope: 11.758238
        outSlope: 11.758238
        tangentMode: 34
      - serializedVersion: 2
        time: 1.3666667
        value: 37
        inSlope: 20.563906
        outSlope: 20.563906
        tangentMode: 34
      - serializedVersion: 2
        time: 2
        value: 16
        inSlope: -3.578947
        outSlope: -3.578947
        tangentMode: 34
      - serializedVersion: 2
        time: 3
        value: 42
        inSlope: -2
        outSlope: -2
        tangentMode: 34
      - serializedVersion: 2
        time: 4
        value: 12
        inSlope: -27
        outSlope: -27
        tangentMode: 34
      - serializedVersion: 2
        time: 4.5
        value: 0
        inSlope: -24
        outSlope: -24
        tangentMode: 34
      m_PreInfinity: 2
      m_PostInfinity: 2
      m_RotationOrder: 4
    attribute: m_LocalPosition.x
    path: 
    classID: 4
    script: {fileID: 0}
  - curve:
      serializedVersion: 2
      m_Curve:
      - serializedVersion: 2
        time: 0
        value: 0
        inSlope: 114.85715
        outSlope: 114.85715
        tangentMode: 34
      - serializedVersion: 2
        time: 0.5833333
        value: 67
        inSlope: 104.73627
        outSlope: 104.73627
        tangentMode: 34
      - serializedVersion: 2
        time: 1.0166667
        value: 108
        inSlope: 120.16483
        outSlope: 120.16483
        tangentMode: 34
      - serializedVersion: 2
        time: 1.3666667
        value: 159
        inSlope: 106.804504
        outSlope: 106.804504
        tangentMode: 34
      - serializedVersion: 2
        time: 2
        value: 202
        inSlope: 61.94737
        outSlope: 61.94737
        tangentMode: 34
      - serializedVersion: 2
        time: 3
        value: 258
        inSlope: 54
        outSlope: 54
        tangentMode: 34
      - serializedVersion: 2
        time: 4
        value: 310
        inSlope: -284
        outSlope: -284
        tangentMode: 34
      - serializedVersion: 2
        time: 4.5
        value: 0
        inSlope: -620
        outSlope: -620
        tangentMode: 34
      m_PreInfinity: 2
      m_PostInfinity: 2
      m_RotationOrder: 4
    attribute: m_LocalPosition.y
    path: 
    classID: 4
    script: {fileID: 0}
  - curve:
      serializedVersion: 2
      m_Curve:
      - serializedVersion: 2
        time: 0
        value: 0
        inSlope: 0
        outSlope: 0
        tangentMode: 34
      - serializedVersion: 2
        time: 0.5833333
        value: 0
        inSlope: 0
        outSlope: 0
        tangentMode: 34
      - serializedVersion: 2
        time: 1.0166667
        value: 0
        inSlope: 0
        outSlope: 0
        tangentMode: 34
      - serializedVersion: 2
        time: 1.3666667
        value: 0
        inSlope: 0
        outSlope: 0
        tangentMode: 34
      - serializedVersion: 2
        time: 2
        value: 0
        inSlope: 0
        outSlope: 0
        tangentMode: 34
      - serializedVersion: 2
        time: 3
        value: 0
        inSlope: 0
        outSlope: 0
        tangentMode: 34
      - serializedVersion: 2
        time: 4
        value: 0
        inSlope: 0
        outSlope: 0
        tangentMode: 34
      - serializedVersion: 2
        time: 4.5
        value: 0
        inSlope: 0
        outSlope: 0
        tangentMode: 34
      m_PreInfinity: 2
      m_PostInfinity: 2
      m_RotationOrder: 4
    attribute: m_LocalPosition.z
    path: 
    classID: 4
    script: {fileID: 0}
  - curve:
      serializedVersion: 2
      m_Curve:
      - serializedVersion: 2
        time: 0
        value: 1
        inSlope: Infinity
        outSlope: Infinity
        tangentMode: 103
      - serializedVersion: 2
        time: 3.5
        value: 0
        inSlope: Infinity
        outSlope: Infinity
        tangentMode: 103
      - serializedVersion: 2
        time: 4
        value: 0
        inSlope: Infinity
        outSlope: Infinity
        tangentMode: 103
      - serializedVersion: 2
        time: 4.05
        value: 0
        inSlope: Infinity
        outSlope: Infinity
        tangentMode: 103
      - serializedVersion: 2
        time: 4.233333
        value: 0
        inSlope: Infinity
        outSlope: Infinity
        tangentMode: 103
      - serializedVersion: 2
        time: 4.383333
        value: 0
        inSlope: Infinity
        outSlope: Infinity
        tangentMode: 103
      - serializedVersion: 2
        time: 4.5
        value: 1
        inSlope: Infinity
        outSlope: Infinity
        tangentMode: 103
      - serializedVersion: 2
        time: 4.55
        value: 0
        inSlope: Infinity
        outSlope: Infinity
        tangentMode: 103
      m_PreInfinity: 2
      m_PostInfinity: 2
      m_RotationOrder: 4
    attribute: m_Enabled
    path: Image
    classID: 114
    script: {fileID: -765806418, guid: f5f67c52d1564df4a8936ccd202a3bd8, type: 3}
  m_EulerEditorCurves: []
  m_HasGenericRootTransform: 1
  m_HasMotionFloatCurves: 0
  m_GenerateMotionCurves: 1
  m_Events: []
