%YAML 1.1
%TAG !u! tag:unity3d.com,2011:
--- !u!74 &7400000
AnimationClip:
  m_ObjectHideFlags: 0
  m_PrefabParentObject: {fileID: 0}
  m_PrefabInternal: {fileID: 0}
  m_Name: bossMov
  serializedVersion: 6
  m_Legacy: 0
  m_Compressed: 0
  m_UseHighQualityCurve: 1
  m_RotationCurves: []
  m_CompressedRotationCurves: []
  m_EulerCurves:
  - curve:
      serializedVersion: 2
      m_Curve:
      - serializedVersion: 2
        time: 0
        value: {x: 0, y: 0, z: 0}
        inSlope: {x: 0, y: 0, z: 37.17728}
        outSlope: {x: 0, y: 0, z: 37.17728}
        tangentMode: 0
      - serializedVersion: 2
        time: 9.683333
        value: {x: 0, y: 0, z: 360}
        inSlope: {x: 0, y: 0, z: 37.17728}
        outSlope: {x: 0, y: 0, z: 37.17728}
        tangentMode: 0
      m_PreInfinity: 2
      m_PostInfinity: 2
      m_RotationOrder: 4
    path: 
  m_PositionCurves:
  - curve:
      serializedVersion: 2
      m_Curve:
      - serializedVersion: 2
        time: 0
        value: {x: 33.9, y: -4.9, z: 0}
        inSlope: {x: -8.145, y: 0, z: 0}
        outSlope: {x: -8.145, y: 0, z: 0}
        tangentMode: 0
      - serializedVersion: 2
        time: 2
        value: {x: 17.61, y: -4.9, z: 0}
        inSlope: {x: -3.929528, y: 3.6666667, z: 0}
        outSlope: {x: -3.929528, y: 3.6666667, z: 0}
        tangentMode: 0
      - serializedVersion: 2
        time: 3.05
        value: {x: 17.910242, y: 2.8, z: 0}
        inSlope: {x: 4.657646, y: -1.1333239, z: 0}
        outSlope: {x: 4.657646, y: -1.1333239, z: 0}
        tangentMode: 0
      - serializedVersion: 2
        time: 3.1333334
        value: {x: 18.66269, y: 2, z: 0}
        inSlope: {x: 10.114635, y: -4.7999907, z: 0}
        outSlope: {x: 10.114635, y: -4.7999907, z: 0}
        tangentMode: 0
      - serializedVersion: 2
        time: 3.6666667
        value: {x: 24.63598, y: 2, z: 0}
        inSlope: {x: 11.500292, y: 0.20338984, z: 0}
        outSlope: {x: 11.500292, y: 0.20338984, z: 0}
        tangentMode: 0
      - serializedVersion: 2
        time: 5.633333
        value: {x: 47.84395, y: 2.8, z: 0}
        inSlope: {x: 8.960852, y: 2.4033818, z: 0}
        outSlope: {x: 8.960852, y: 2.4033818, z: 0}
        tangentMode: 0
      - serializedVersion: 2
        time: 5.6833334
        value: {x: 48.15, y: 3.02, z: 0}
        inSlope: {x: 3.06052, y: 0.389992, z: 0}
        outSlope: {x: 3.06052, y: 0.389992, z: 0}
        tangentMode: 0
      - serializedVersion: 2
        time: 7.6833334
        value: {x: 48.15, y: -4.22, z: 0}
        inSlope: {x: -3.5625, y: -1.98, z: 0}
        outSlope: {x: -3.5625, y: -1.98, z: 0}
        tangentMode: 0
      - serializedVersion: 2
        time: 9.683333
        value: {x: 33.9, y: -4.9, z: 0}
        inSlope: {x: -7.125, y: -0.34000015, z: 0}
        outSlope: {x: -7.125, y: -0.34000015, z: 0}
        tangentMode: 0
      m_PreInfinity: 2
      m_PostInfinity: 2
      m_RotationOrder: 4
    path: 
  m_ScaleCurves: []
  m_FloatCurves: []
  m_PPtrCurves: []
  m_SampleRate: 60
  m_WrapMode: 0
  m_Bounds:
    m_Center: {x: 0, y: 0, z: 0}
    m_Extent: {x: 0, y: 0, z: 0}
  m_ClipBindingConstant:
    genericBindings:
    - serializedVersion: 2
      path: 0
      attribute: 1
      script: {fileID: 0}
      typeID: 4
      customType: 0
      isPPtrCurve: 0
    - serializedVersion: 2
      path: 0
      attribute: 4
      script: {fileID: 0}
      typeID: 4
      customType: 14
      isPPtrCurve: 0
    pptrCurveMapping: []
  m_AnimationClipSettings:
    serializedVersion: 2
    m_AdditiveReferencePoseClip: {fileID: 0}
    m_AdditiveReferencePoseTime: 0
    m_StartTime: 0
    m_StopTime: 9.683333
    m_OrientationOffsetY: 0
    m_Level: 0
    m_CycleOffset: 0
    m_HasAdditiveReferencePose: 0
    m_LoopTime: 1
    m_LoopBlend: 0
    m_LoopBlendOrientation: 0
    m_LoopBlendPositionY: 0
    m_LoopBlendPositionXZ: 0
    m_KeepOriginalOrientation: 0
    m_KeepOriginalPositionY: 1
    m_KeepOriginalPositionXZ: 0
    m_HeightFromFeet: 0
    m_Mirror: 0
  m_EditorCurves:
  - curve:
      serializedVersion: 2
      m_Curve:
      - serializedVersion: 2
        time: 0
        value: 33.9
        inSlope: -8.145
        outSlope: -8.145
        tangentMode: 34
      - serializedVersion: 2
        time: 2
        value: 17.61
        inSlope: -3.929528
        outSlope: -3.929528
        tangentMode: 34
      - serializedVersion: 2
        time: 3.05
        value: 17.910242
        inSlope: 4.657646
        outSlope: 4.657646
        tangentMode: 34
      - serializedVersion: 2
        time: 3.1333334
        value: 18.66269
        inSlope: 10.114635
        outSlope: 10.114635
        tangentMode: 34
      - serializedVersion: 2
        time: 3.6666667
        value: 24.63598
        inSlope: 11.500292
        outSlope: 11.500292
        tangentMode: 34
      - serializedVersion: 2
        time: 5.633333
        value: 47.84395
        inSlope: 8.960852
        outSlope: 8.960852
        tangentMode: 34
      - serializedVersion: 2
        time: 5.6833334
        value: 48.15
        inSlope: 3.06052
        outSlope: 3.06052
        tangentMode: 34
      - serializedVersion: 2
        time: 7.6833334
        value: 48.15
        inSlope: -3.5625
        outSlope: -3.5625
        tangentMode: 34
      - serializedVersion: 2
        time: 9.683333
        value: 33.9
        inSlope: -7.125
        outSlope: -7.125
        tangentMode: 34
      m_PreInfinity: 2
      m_PostInfinity: 2
      m_RotationOrder: 4
    attribute: m_LocalPosition.x
    path: 
    classID: 4
    script: {fileID: 0}
  - curve:
      serializedVersion: 2
      m_Curve:
      - serializedVersion: 2
        time: 0
        value: -4.9
        inSlope: 0
        outSlope: 0
        tangentMode: 34
      - serializedVersion: 2
        time: 2
        value: -4.9
        inSlope: 3.6666667
        outSlope: 3.6666667
        tangentMode: 34
      - serializedVersion: 2
        time: 3.05
        value: 2.8
        inSlope: -1.1333239
        outSlope: -1.1333239
        tangentMode: 34
      - serializedVersion: 2
        time: 3.1333334
        value: 2
        inSlope: -4.7999907
        outSlope: -4.7999907
        tangentMode: 34
      - serializedVersion: 2
        time: 3.6666667
        value: 2
        inSlope: 0.20338984
        outSlope: 0.20338984
        tangentMode: 34
      - serializedVersion: 2
        time: 5.633333
        value: 2.8
        inSlope: 2.4033818
        outSlope: 2.4033818
        tangentMode: 34
      - serializedVersion: 2
        time: 5.6833334
        value: 3.02
        inSlope: 0.389992
        outSlope: 0.389992
        tangentMode: 34
      - serializedVersion: 2
        time: 7.6833334
        value: -4.22
        inSlope: -1.98
        outSlope: -1.98
        tangentMode: 34
      - serializedVersion: 2
        time: 9.683333
        value: -4.9
        inSlope: -0.34000015
        outSlope: -0.34000015
        tangentMode: 34
      m_PreInfinity: 2
      m_PostInfinity: 2
      m_RotationOrder: 4
    attribute: m_LocalPosition.y
    path: 
    classID: 4
    script: {fileID: 0}
  - curve:
      serializedVersion: 2
      m_Curve:
      - serializedVersion: 2
        time: 0
        value: 0
        inSlope: 0
        outSlope: 0
        tangentMode: 34
      - serializedVersion: 2
        time: 2
        value: 0
        inSlope: 0
        outSlope: 0
        tangentMode: 34
      - serializedVersion: 2
        time: 3.05
        value: 0
        inSlope: 0
        outSlope: 0
        tangentMode: 34
      - serializedVersion: 2
        time: 3.1333334
        value: 0
        inSlope: 0
        outSlope: 0
        tangentMode: 34
      - serializedVersion: 2
        time: 3.6666667
        value: 0
        inSlope: 0
        outSlope: 0
        tangentMode: 34
      - serializedVersion: 2
        time: 5.633333
        value: 0
        inSlope: 0
        outSlope: 0
        tangentMode: 34
      - serializedVersion: 2
        time: 5.6833334
        value: 0
        inSlope: 0
        outSlope: 0
        tangentMode: 34
      - serializedVersion: 2
        time: 7.6833334
        value: 0
        inSlope: 0
        outSlope: 0
        tangentMode: 34
      - serializedVersion: 2
        time: 9.683333
        value: 0
        inSlope: 0
        outSlope: 0
        tangentMode: 34
      m_PreInfinity: 2
      m_PostInfinity: 2
      m_RotationOrder: 4
    attribute: m_LocalPosition.z
    path: 
    classID: 4
    script: {fileID: 0}
  - curve:
      serializedVersion: 2
      m_Curve:
      - serializedVersion: 2
        time: 0
        value: 0
        inSlope: 0
        outSlope: 0
        tangentMode: 34
      - serializedVersion: 2
        time: 9.683333
        value: 0
        inSlope: 0
        outSlope: 0
        tangentMode: 34
      m_PreInfinity: 2
      m_PostInfinity: 2
      m_RotationOrder: 4
    attribute: localEulerAnglesRaw.x
    path: 
    classID: 4
    script: {fileID: 0}
  - curve:
      serializedVersion: 2
      m_Curve:
      - serializedVersion: 2
        time: 0
        value: 0
        inSlope: 0
        outSlope: 0
        tangentMode: 34
      - serializedVersion: 2
        time: 9.683333
        value: 0
        inSlope: 0
        outSlope: 0
        tangentMode: 34
      m_PreInfinity: 2
      m_PostInfinity: 2
      m_RotationOrder: 4
    attribute: localEulerAnglesRaw.y
    path: 
    classID: 4
    script: {fileID: 0}
  - curve:
      serializedVersion: 2
      m_Curve:
      - serializedVersion: 2
        time: 0
        value: 0
        inSlope: 37.17728
        outSlope: 37.17728
        tangentMode: 34
      - serializedVersion: 2
        time: 9.683333
        value: 360
        inSlope: 37.17728
        outSlope: 37.17728
        tangentMode: 34
      m_PreInfinity: 2
      m_PostInfinity: 2
      m_RotationOrder: 4
    attribute: localEulerAnglesRaw.z
    path: 
    classID: 4
    script: {fileID: 0}
  m_EulerEditorCurves:
  - curve:
      serializedVersion: 2
      m_Curve: []
      m_PreInfinity: 2
      m_PostInfinity: 2
      m_RotationOrder: 4
    attribute: m_LocalEulerAngles.x
    path: 
    classID: 4
    script: {fileID: 0}
  - curve:
      serializedVersion: 2
      m_Curve: []
      m_PreInfinity: 2
      m_PostInfinity: 2
      m_RotationOrder: 4
    attribute: m_LocalEulerAngles.y
    path: 
    classID: 4
    script: {fileID: 0}
  - curve:
      serializedVersion: 2
      m_Curve: []
      m_PreInfinity: 2
      m_PostInfinity: 2
      m_RotationOrder: 4
    attribute: m_LocalEulerAngles.z
    path: 
    classID: 4
    script: {fileID: 0}
  m_HasGenericRootTransform: 1
  m_HasMotionFloatCurves: 0
  m_GenerateMotionCurves: 0
  m_Events: []
